{
	"presets": [
		[
			"@babel/preset-env",
			{
				"corejs": 3,
				"useBuiltIns": "usage"
			}
		],
		[
			"@babel/preset-react",
			{
				"useBuiltIns": true
			}
		]
	],
	"plugins": [
		[
		  "import", 
		  { "libraryName": "antd", "style": "css" }
		]
	  ]
}
